Optimal Prices

P =

    1.1065    1.1065    1.1065

Maximum demand

Q =

    0.0963    0.0963    0.0963

Elapsed time is 0.001824 seconds.
Optimal Prices

P =

     0     0     0

Maximum demand

Q =

    0.0963    0.0963    0.0963

Elapsed time is 0.000743 seconds.
Optimal Prices

P =

     0     1     2

Maximum demand

Q =

    0.0963    0.0963    0.0963

Elapsed time is 0.000529 seconds.
Optimal Prices

P =

    1.0155    1.0432    1.1267

Maximum demand

Q =

    0.0152    0.0414    0.1125

Elapsed time is 0.001219 seconds.
Optimal Prices

P =

    1.1065    1.1065    1.1065

Maximum demand

Q =

    0.0963    0.0963    0.0963

Elapsed time is 0.001078 seconds.
Optimal Prices

P =

     0     0     0

Maximum demand

Q =

    0.0963    0.0963    0.0963

Elapsed time is 0.000352 seconds.
Optimal Prices

P =

     0     1     2

Maximum demand

Q =

    0.0963    0.0963    0.0963

Elapsed time is 0.000300 seconds.
Optimal Prices

P =

    1.0155    1.0432    1.1267

Maximum demand

Q =

    0.0152    0.0414    0.1125

Elapsed time is 0.000385 seconds.
Optimal Prices

P =

    1.1065    1.1065    1.1065

Maximum demand

Q =

    0.0963    0.0963    0.0963

Elapsed time is 0.001305 seconds.
Optimal Prices

P =

     0     0     0

Maximum demand

Q =

    0.0963    0.0963    0.0963

Elapsed time is 0.000405 seconds.
Optimal Prices

P =

     0     1     2

Maximum demand

Q =

    0.0963    0.0963    0.0963

Elapsed time is 0.000366 seconds.
Optimal Prices

P =

    1.0155    1.0432    1.1267

Maximum demand

Q =

    0.0152    0.0414    0.1125

Elapsed time is 0.000728 seconds.
Optimal Prices

P =

    1.1065    1.1065    1.1065

Maximum demand

Q =

    0.0963    0.0963    0.0963

Elapsed time is 0.000683 seconds.
Optimal Prices

P =

     0     0     0

Maximum demand

Q =

    0.0963    0.0963    0.0963

Elapsed time is 0.000287 seconds.
Optimal Prices

P =

     0     1     2

Maximum demand

Q =

    0.0963    0.0963    0.0963

Elapsed time is 0.000265 seconds.
Optimal Prices

P =

    1.0155    1.0432    1.1267

Maximum demand

Q =

    0.0152    0.0414    0.1125

Elapsed time is 0.000288 seconds.
Optimal Prices

P =

    1.1065    1.1065    1.1065

Maximum demand

Q =

    0.0963    0.0963    0.0963

Elapsed time is 0.001561 seconds.
Optimal Prices

P =

     0     0     0

Maximum demand

Q =

    0.0963    0.0963    0.0963

Elapsed time is 0.000734 seconds.
Optimal Prices

P =

     0     1     2

Maximum demand

Q =

    0.0963    0.0963    0.0963

Elapsed time is 0.000632 seconds.
Optimal Prices

P =

    1.0155    1.0432    1.1267

Maximum demand

Q =

    0.0152    0.0414    0.1125

Elapsed time is 0.001213 seconds.
